[gd_scene load_steps=3 format=3 uid="uid://cwcloir45odbm"]

[ext_resource type="Texture2D" uid="uid://bgpt77ql34m6y" path="res://assets/sprites/coin.png" id="1_aitge"]
[ext_resource type="Texture2D" uid="uid://7svkh31g7u51" path="res://assets/light_textures/spotlight.webp" id="2_xys2h"]

[node name="CoinLight" type="Node2D"]

[node name="Sprite2D" type="Sprite2D" parent="."]
texture = ExtResource("1_aitge")

[node name="PointLight2D" type="PointLight2D" parent="."]
range_item_cull_mask = 3
shadow_enabled = true
shadow_filter = 1
texture = ExtResource("2_xys2h")
