[gd_scene load_steps=2 format=3 uid="uid://urojc36adv0r"]

[ext_resource type="Script" path="res://HUD.gd" id="1_wba0h"]

[node name="HUD" type="CanvasLayer"]
script = ExtResource("1_wba0h")

[node name="kills" type="Label" parent="."]
anchors_preset = 5
anchor_left = 0.5
anchor_right = 0.5
offset_left = -20.0
offset_right = 20.0
offset_bottom = 91.0
grow_horizontal = 2
theme_override_font_sizes/font_size = 64
text = "0"

[node name="magazine" type="Label" parent="."]
offset_right = 40.0
offset_bottom = 23.0
text = "0"
