[gd_scene load_steps=5 format=3 uid="uid://dh8ppjd8yju35"]

[ext_resource type="Script" path="res://MainScene.gd" id="1_106eq"]
[ext_resource type="PackedScene" uid="uid://dqkneop1ybslk" path="res://scenes/Player.tscn" id="2_1gpdu"]
[ext_resource type="Texture2D" uid="uid://cek6orfa1a7ue" path="res://assets/background_tiles/background_tile_grass.png" id="2_skajb"]
[ext_resource type="PackedScene" uid="uid://cwcloir45odbm" path="res://scenes/coin_light.tscn" id="3_uw2oe"]

[node name="MainScene" type="Node2D"]
script = ExtResource("1_106eq")

[node name="BackgroundTileGrass" type="Sprite2D" parent="."]
z_index = -1
texture_repeat = 2
position = Vector2(704.25, 386.75)
scale = Vector2(5.68555, 3.27539)
texture = ExtResource("2_skajb")

[node name="Player" parent="." instance=ExtResource("2_1gpdu")]
position = Vector2(543, 361)

[node name="CoinLight" parent="." instance=ExtResource("3_uw2oe")]
position = Vector2(448, 163)
scale = Vector2(1.5, 1.5)

[node name="CoinLight2" parent="." instance=ExtResource("3_uw2oe")]
position = Vector2(361, 345)

[node name="CanvasModulate" type="CanvasModulate" parent="."]
color = Color(0.0156863, 0.0156863, 0.0156863, 1)
